<?xml version="1.0" encoding="utf-8"?>
<!DOCTYPE eagle SYSTEM "eagle.dtd">
<eagle version="8.3.1">
<drawing>
<settings>
<setting alwaysvectorfont="no"/>
<setting verticaltext="up"/>
</settings>
<grid distance="0.1" unitdist="inch" unit="inch" style="lines" multiple="1" display="no" altdistance="0.01" altunitdist="inch" altunit="inch"/>
<layers>
<layer number="1" name="Top" color="4" fill="1" visible="no" active="no"/>
<layer number="16" name="Bottom" color="1" fill="1" visible="no" active="no"/>
<layer number="17" name="Pads" color="2" fill="1" visible="no" active="no"/>
<layer number="18" name="Vias" color="2" fill="1" visible="no" active="no"/>
<layer number="19" name="Unrouted" color="6" fill="1" visible="no" active="no"/>
<layer number="20" name="Dimension" color="15" fill="1" visible="no" active="no"/>
<layer number="21" name="tPlace" color="7" fill="1" visible="no" active="no"/>
<layer number="22" name="bPlace" color="7" fill="1" visible="no" active="no"/>
<layer number="23" name="tOrigins" color="15" fill="1" visible="no" active="no"/>
<layer number="24" name="bOrigins" color="15" fill="1" visible="no" active="no"/>
<layer number="25" name="tNames" color="7" fill="1" visible="no" active="no"/>
<layer number="26" name="bNames" color="7" fill="1" visible="no" active="no"/>
<layer number="27" name="tValues" color="7" fill="1" visible="no" active="no"/>
<layer number="28" name="bValues" color="7" fill="1" visible="no" active="no"/>
<layer number="29" name="tStop" color="7" fill="3" visible="no" active="no"/>
<layer number="30" name="bStop" color="7" fill="6" visible="no" active="no"/>
<layer number="31" name="tCream" color="7" fill="4" visible="no" active="no"/>
<layer number="32" name="bCream" color="7" fill="5" visible="no" active="no"/>
<layer number="33" name="tFinish" color="6" fill="3" visible="no" active="no"/>
<layer number="34" name="bFinish" color="6" fill="6" visible="no" active="no"/>
<layer number="35" name="tGlue" color="7" fill="4" visible="no" active="no"/>
<layer number="36" name="bGlue" color="7" fill="5" visible="no" active="no"/>
<layer number="37" name="tTest" color="7" fill="1" visible="no" active="no"/>
<layer number="38" name="bTest" color="7" fill="1" visible="no" active="no"/>
<layer number="39" name="tKeepout" color="4" fill="11" visible="no" active="no"/>
<layer number="40" name="bKeepout" color="1" fill="11" visible="no" active="no"/>
<layer number="41" name="tRestrict" color="4" fill="10" visible="no" active="no"/>
<layer number="42" name="bRestrict" color="1" fill="10" visible="no" active="no"/>
<layer number="43" name="vRestrict" color="2" fill="10" visible="no" active="no"/>
<layer number="44" name="Drills" color="7" fill="1" visible="no" active="no"/>
<layer number="45" name="Holes" color="7" fill="1" visible="no" active="no"/>
<layer number="46" name="Milling" color="3" fill="1" visible="no" active="no"/>
<layer number="47" name="Measures" color="7" fill="1" visible="no" active="no"/>
<layer number="48" name="Document" color="7" fill="1" visible="no" active="no"/>
<layer number="49" name="Reference" color="7" fill="1" visible="no" active="no"/>
<layer number="51" name="tDocu" color="7" fill="1" visible="no" active="no"/>
<layer number="52" name="bDocu" color="7" fill="1" visible="no" active="no"/>
<layer number="90" name="Modules" color="5" fill="1" visible="yes" active="yes"/>
<layer number="91" name="Nets" color="2" fill="1" visible="yes" active="yes"/>
<layer number="92" name="Busses" color="1" fill="1" visible="yes" active="yes"/>
<layer number="93" name="Pins" color="2" fill="1" visible="no" active="yes"/>
<layer number="94" name="Symbols" color="4" fill="1" visible="yes" active="yes"/>
<layer number="95" name="Names" color="7" fill="1" visible="yes" active="yes"/>
<layer number="96" name="Values" color="7" fill="1" visible="yes" active="yes"/>
<layer number="97" name="Info" color="7" fill="1" visible="yes" active="yes"/>
<layer number="98" name="Guide" color="6" fill="1" visible="yes" active="yes"/>
</layers>
<schematic xreflabel="%F%N/%S.%C%R" xrefpart="/%S.%C%R">
<libraries>
<library name="con-lstb" urn="urn:adsk.eagle:library:162">
<description>&lt;b&gt;Pin Headers&lt;/b&gt;&lt;p&gt;
Naming:&lt;p&gt;
MA = male&lt;p&gt;
# contacts - # rows&lt;p&gt;
W = angled&lt;p&gt;
&lt;author&gt;Created by librarian@cadsoft.de&lt;/author&gt;</description>
<packages>
<package name="MA04-1" urn="urn:adsk.eagle:footprint:8285/1" library_version="1">
<description>&lt;b&gt;PIN HEADER&lt;/b&gt;</description>
<wire x1="-4.445" y1="1.27" x2="-3.175" y2="1.27" width="0.1524" layer="21"/>
<wire x1="-3.175" y1="1.27" x2="-2.54" y2="0.635" width="0.1524" layer="21"/>
<wire x1="-2.54" y1="-0.635" x2="-3.175" y2="-1.27" width="0.1524" layer="21"/>
<wire x1="-2.54" y1="0.635" x2="-1.905" y2="1.27" width="0.1524" layer="21"/>
<wire x1="-1.905" y1="1.27" x2="-0.635" y2="1.27" width="0.1524" layer="21"/>
<wire x1="-0.635" y1="1.27" x2="0" y2="0.635" width="0.1524" layer="21"/>
<wire x1="0" y1="-0.635" x2="-0.635" y2="-1.27" width="0.1524" layer="21"/>
<wire x1="-0.635" y1="-1.27" x2="-1.905" y2="-1.27" width="0.1524" layer="21"/>
<wire x1="-1.905" y1="-1.27" x2="-2.54" y2="-0.635" width="0.1524" layer="21"/>
<wire x1="-5.08" y1="0.635" x2="-5.08" y2="-0.635" width="0.1524" layer="21"/>
<wire x1="-4.445" y1="1.27" x2="-5.08" y2="0.635" width="0.1524" layer="21"/>
<wire x1="-5.08" y1="-0.635" x2="-4.445" y2="-1.27" width="0.1524" layer="21"/>
<wire x1="-3.175" y1="-1.27" x2="-4.445" y2="-1.27" width="0.1524" layer="21"/>
<wire x1="0" y1="0.635" x2="0.635" y2="1.27" width="0.1524" layer="21"/>
<wire x1="0.635" y1="1.27" x2="1.905" y2="1.27" width="0.1524" layer="21"/>
<wire x1="1.905" y1="1.27" x2="2.54" y2="0.635" width="0.1524" layer="21"/>
<wire x1="2.54" y1="-0.635" x2="1.905" y2="-1.27" width="0.1524" layer="21"/>
<wire x1="1.905" y1="-1.27" x2="0.635" y2="-1.27" width="0.1524" layer="21"/>
<wire x1="0.635" y1="-1.27" x2="0" y2="-0.635" width="0.1524" layer="21"/>
<wire x1="3.175" y1="1.27" x2="4.445" y2="1.27" width="0.1524" layer="21"/>
<wire x1="4.445" y1="1.27" x2="5.08" y2="0.635" width="0.1524" layer="21"/>
<wire x1="5.08" y1="0.635" x2="5.08" y2="-0.635" width="0.1524" layer="21"/>
<wire x1="5.08" y1="-0.635" x2="4.445" y2="-1.27" width="0.1524" layer="21"/>
<wire x1="3.175" y1="1.27" x2="2.54" y2="0.635" width="0.1524" layer="21"/>
<wire x1="2.54" y1="-0.635" x2="3.175" y2="-1.27" width="0.1524" layer="21"/>
<wire x1="4.445" y1="-1.27" x2="3.175" y2="-1.27" width="0.1524" layer="21"/>
<pad name="1" x="-3.81" y="0" drill="1.016" shape="long" rot="R90"/>
<pad name="2" x="-1.27" y="0" drill="1.016" shape="long" rot="R90"/>
<pad name="3" x="1.27" y="0" drill="1.016" shape="long" rot="R90"/>
<pad name="4" x="3.81" y="0" drill="1.016" shape="long" rot="R90"/>
<text x="-5.08" y="1.651" size="1.27" layer="25" ratio="10">&gt;NAME</text>
<text x="-6.223" y="-0.635" size="1.27" layer="21" ratio="10">1</text>
<text x="0.635" y="1.651" size="1.27" layer="27" ratio="10">&gt;VALUE</text>
<text x="5.334" y="-0.635" size="1.27" layer="21" ratio="10">4</text>
<rectangle x1="-1.524" y1="-0.254" x2="-1.016" y2="0.254" layer="51"/>
<rectangle x1="-4.064" y1="-0.254" x2="-3.556" y2="0.254" layer="51"/>
<rectangle x1="1.016" y1="-0.254" x2="1.524" y2="0.254" layer="51"/>
<rectangle x1="3.556" y1="-0.254" x2="4.064" y2="0.254" layer="51"/>
</package>
<package name="MA09-1" urn="urn:adsk.eagle:footprint:8298/1" library_version="1">
<description>&lt;b&gt;PIN HEADER&lt;/b&gt;</description>
<wire x1="-10.795" y1="1.27" x2="-9.525" y2="1.27" width="0.1524" layer="21"/>
<wire x1="-9.525" y1="1.27" x2="-8.89" y2="0.635" width="0.1524" layer="21"/>
<wire x1="-8.89" y1="-0.635" x2="-9.525" y2="-1.27" width="0.1524" layer="21"/>
<wire x1="-8.89" y1="0.635" x2="-8.255" y2="1.27" width="0.1524" layer="21"/>
<wire x1="-8.255" y1="1.27" x2="-6.985" y2="1.27" width="0.1524" layer="21"/>
<wire x1="-6.985" y1="1.27" x2="-6.35" y2="0.635" width="0.1524" layer="21"/>
<wire x1="-6.35" y1="-0.635" x2="-6.985" y2="-1.27" width="0.1524" layer="21"/>
<wire x1="-6.985" y1="-1.27" x2="-8.255" y2="-1.27" width="0.1524" layer="21"/>
<wire x1="-8.255" y1="-1.27" x2="-8.89" y2="-0.635" width="0.1524" layer="21"/>
<wire x1="-11.43" y1="0.635" x2="-11.43" y2="-0.635" width="0.1524" layer="21"/>
<wire x1="-10.795" y1="1.27" x2="-11.43" y2="0.635" width="0.1524" layer="21"/>
<wire x1="-11.43" y1="-0.635" x2="-10.795" y2="-1.27" width="0.1524" layer="21"/>
<wire x1="-9.525" y1="-1.27" x2="-10.795" y2="-1.27" width="0.1524" layer="21"/>
<wire x1="-6.35" y1="0.635" x2="-5.715" y2="1.27" width="0.1524" layer="21"/>
<wire x1="-5.715" y1="1.27" x2="-4.445" y2="1.27" width="0.1524" layer="21"/>
<wire x1="-4.445" y1="1.27" x2="-3.81" y2="0.635" width="0.1524" layer="21"/>
<wire x1="-3.81" y1="-0.635" x2="-4.445" y2="-1.27" width="0.1524" layer="21"/>
<wire x1="-4.445" y1="-1.27" x2="-5.715" y2="-1.27" width="0.1524" layer="21"/>
<wire x1="-5.715" y1="-1.27" x2="-6.35" y2="-0.635" width="0.1524" layer="21"/>
<wire x1="-3.175" y1="1.27" x2="-1.905" y2="1.27" width="0.1524" layer="21"/>
<wire x1="-1.905" y1="1.27" x2="-1.27" y2="0.635" width="0.1524" layer="21"/>
<wire x1="-1.27" y1="-0.635" x2="-1.905" y2="-1.27" width="0.1524" layer="21"/>
<wire x1="-3.175" y1="1.27" x2="-3.81" y2="0.635" width="0.1524" layer="21"/>
<wire x1="-3.81" y1="-0.635" x2="-3.175" y2="-1.27" width="0.1524" layer="21"/>
<wire x1="-1.905" y1="-1.27" x2="-3.175" y2="-1.27" width="0.1524" layer="21"/>
<wire x1="-0.635" y1="1.27" x2="0.635" y2="1.27" width="0.1524" layer="21"/>
<wire x1="0.635" y1="1.27" x2="1.27" y2="0.635" width="0.1524" layer="21"/>
<wire x1="1.27" y1="-0.635" x2="0.635" y2="-1.27" width="0.1524" layer="21"/>
<wire x1="1.27" y1="0.635" x2="1.905" y2="1.27" width="0.1524" layer="21"/>
<wire x1="1.905" y1="1.27" x2="3.175" y2="1.27" width="0.1524" layer="21"/>
<wire x1="3.175" y1="1.27" x2="3.81" y2="0.635" width="0.1524" layer="21"/>
<wire x1="3.81" y1="-0.635" x2="3.175" y2="-1.27" width="0.1524" layer="21"/>
<wire x1="3.175" y1="-1.27" x2="1.905" y2="-1.27" width="0.1524" layer="21"/>
<wire x1="1.905" y1="-1.27" x2="1.27" y2="-0.635" width="0.1524" layer="21"/>
<wire x1="-0.635" y1="1.27" x2="-1.27" y2="0.635" width="0.1524" layer="21"/>
<wire x1="-1.27" y1="-0.635" x2="-0.635" y2="-1.27" width="0.1524" layer="21"/>
<wire x1="0.635" y1="-1.27" x2="-0.635" y2="-1.27" width="0.1524" layer="21"/>
<wire x1="3.81" y1="0.635" x2="4.445" y2="1.27" width="0.1524" layer="21"/>
<wire x1="4.445" y1="1.27" x2="5.715" y2="1.27" width="0.1524" layer="21"/>
<wire x1="5.715" y1="1.27" x2="6.35" y2="0.635" width="0.1524" layer="21"/>
<wire x1="6.35" y1="-0.635" x2="5.715" y2="-1.27" width="0.1524" layer="21"/>
<wire x1="5.715" y1="-1.27" x2="4.445" y2="-1.27" width="0.1524" layer="21"/>
<wire x1="4.445" y1="-1.27" x2="3.81" y2="-0.635" width="0.1524" layer="21"/>
<wire x1="6.985" y1="1.27" x2="8.255" y2="1.27" width="0.1524" layer="21"/>
<wire x1="8.255" y1="1.27" x2="8.89" y2="0.635" width="0.1524" layer="21"/>
<wire x1="8.89" y1="-0.635" x2="8.255" y2="-1.27" width="0.1524" layer="21"/>
<wire x1="6.985" y1="1.27" x2="6.35" y2="0.635" width="0.1524" layer="21"/>
<wire x1="6.35" y1="-0.635" x2="6.985" y2="-1.27" width="0.1524" layer="21"/>
<wire x1="8.255" y1="-1.27" x2="6.985" y2="-1.27" width="0.1524" layer="21"/>
<wire x1="9.525" y1="1.27" x2="10.795" y2="1.27" width="0.1524" layer="21"/>
<wire x1="10.795" y1="1.27" x2="11.43" y2="0.635" width="0.1524" layer="21"/>
<wire x1="11.43" y1="-0.635" x2="10.795" y2="-1.27" width="0.1524" layer="21"/>
<wire x1="9.525" y1="1.27" x2="8.89" y2="0.635" width="0.1524" layer="21"/>
<wire x1="8.89" y1="-0.635" x2="9.525" y2="-1.27" width="0.1524" layer="21"/>
<wire x1="10.795" y1="-1.27" x2="9.525" y2="-1.27" width="0.1524" layer="21"/>
<wire x1="11.43" y1="0.635" x2="11.43" y2="-0.635" width="0.1524" layer="21"/>
<pad name="1" x="-10.16" y="0" drill="1.016" shape="long" rot="R90"/>
<pad name="2" x="-7.62" y="0" drill="1.016" shape="long" rot="R90"/>
<pad name="3" x="-5.08" y="0" drill="1.016" shape="long" rot="R90"/>
<pad name="4" x="-2.54" y="0" drill="1.016" shape="long" rot="R90"/>
<pad name="5" x="0" y="0" drill="1.016" shape="long" rot="R90"/>
<pad name="6" x="2.54" y="0" drill="1.016" shape="long" rot="R90"/>
<pad name="7" x="5.08" y="0" drill="1.016" shape="long" rot="R90"/>
<pad name="8" x="7.62" y="0" drill="1.016" shape="long" rot="R90"/>
<pad name="9" x="10.16" y="0" drill="1.016" shape="long" rot="R90"/>
<text x="-11.43" y="1.651" size="1.27" layer="25" ratio="10">&gt;NAME</text>
<text x="-10.668" y="-2.921" size="1.27" layer="21" ratio="10">1</text>
<text x="9.652" y="1.651" size="1.27" layer="21" ratio="10">9</text>
<text x="0" y="-2.921" size="1.27" layer="27" ratio="10">&gt;VALUE</text>
<rectangle x1="-7.874" y1="-0.254" x2="-7.366" y2="0.254" layer="51"/>
<rectangle x1="-10.414" y1="-0.254" x2="-9.906" y2="0.254" layer="51"/>
<rectangle x1="-5.334" y1="-0.254" x2="-4.826" y2="0.254" layer="51"/>
<rectangle x1="-2.794" y1="-0.254" x2="-2.286" y2="0.254" layer="51"/>
<rectangle x1="2.286" y1="-0.254" x2="2.794" y2="0.254" layer="51"/>
<rectangle x1="-0.254" y1="-0.254" x2="0.254" y2="0.254" layer="51"/>
<rectangle x1="4.826" y1="-0.254" x2="5.334" y2="0.254" layer="51"/>
<rectangle x1="7.366" y1="-0.254" x2="7.874" y2="0.254" layer="51"/>
<rectangle x1="9.906" y1="-0.254" x2="10.414" y2="0.254" layer="51"/>
</package>
</packages>
<packages3d>
<package3d name="MA04-1" urn="urn:adsk.eagle:package:8337/1" type="box" library_version="1">
<description>PIN HEADER</description>
</package3d>
<package3d name="MA09-1" urn="urn:adsk.eagle:package:8350/1" type="box" library_version="1">
<description>PIN HEADER</description>
</package3d>
</packages3d>
<symbols>
<symbol name="MA04-1" urn="urn:adsk.eagle:symbol:8284/1" library_version="1">
<wire x1="3.81" y1="-7.62" x2="-1.27" y2="-7.62" width="0.4064" layer="94"/>
<wire x1="1.27" y1="0" x2="2.54" y2="0" width="0.6096" layer="94"/>
<wire x1="1.27" y1="-2.54" x2="2.54" y2="-2.54" width="0.6096" layer="94"/>
<wire x1="1.27" y1="-5.08" x2="2.54" y2="-5.08" width="0.6096" layer="94"/>
<wire x1="-1.27" y1="5.08" x2="-1.27" y2="-7.62" width="0.4064" layer="94"/>
<wire x1="3.81" y1="-7.62" x2="3.81" y2="5.08" width="0.4064" layer="94"/>
<wire x1="-1.27" y1="5.08" x2="3.81" y2="5.08" width="0.4064" layer="94"/>
<wire x1="1.27" y1="2.54" x2="2.54" y2="2.54" width="0.6096" layer="94"/>
<text x="-1.27" y="-10.16" size="1.778" layer="96">&gt;VALUE</text>
<text x="-1.27" y="5.842" size="1.778" layer="95">&gt;NAME</text>
<pin name="1" x="7.62" y="-5.08" visible="pad" length="middle" direction="pas" swaplevel="1" rot="R180"/>
<pin name="2" x="7.62" y="-2.54" visible="pad" length="middle" direction="pas" swaplevel="1" rot="R180"/>
<pin name="3" x="7.62" y="0" visible="pad" length="middle" direction="pas" swaplevel="1" rot="R180"/>
<pin name="4" x="7.62" y="2.54" visible="pad" length="middle" direction="pas" swaplevel="1" rot="R180"/>
</symbol>
<symbol name="MA09-1" urn="urn:adsk.eagle:symbol:8297/1" library_version="1">
<wire x1="3.81" y1="-12.7" x2="-1.27" y2="-12.7" width="0.4064" layer="94"/>
<wire x1="1.27" y1="-5.08" x2="2.54" y2="-5.08" width="0.6096" layer="94"/>
<wire x1="1.27" y1="-7.62" x2="2.54" y2="-7.62" width="0.6096" layer="94"/>
<wire x1="1.27" y1="-10.16" x2="2.54" y2="-10.16" width="0.6096" layer="94"/>
<wire x1="1.27" y1="0" x2="2.54" y2="0" width="0.6096" layer="94"/>
<wire x1="1.27" y1="-2.54" x2="2.54" y2="-2.54" width="0.6096" layer="94"/>
<wire x1="1.27" y1="7.62" x2="2.54" y2="7.62" width="0.6096" layer="94"/>
<wire x1="1.27" y1="5.08" x2="2.54" y2="5.08" width="0.6096" layer="94"/>
<wire x1="1.27" y1="2.54" x2="2.54" y2="2.54" width="0.6096" layer="94"/>
<wire x1="1.27" y1="10.16" x2="2.54" y2="10.16" width="0.6096" layer="94"/>
<wire x1="-1.27" y1="12.7" x2="-1.27" y2="-12.7" width="0.4064" layer="94"/>
<wire x1="3.81" y1="-12.7" x2="3.81" y2="12.7" width="0.4064" layer="94"/>
<wire x1="-1.27" y1="12.7" x2="3.81" y2="12.7" width="0.4064" layer="94"/>
<text x="-1.27" y="-15.24" size="1.778" layer="96">&gt;VALUE</text>
<text x="-1.27" y="13.462" size="1.778" layer="95">&gt;NAME</text>
<pin name="1" x="7.62" y="-10.16" visible="pad" length="middle" direction="pas" swaplevel="1" rot="R180"/>
<pin name="2" x="7.62" y="-7.62" visible="pad" length="middle" direction="pas" swaplevel="1" rot="R180"/>
<pin name="3" x="7.62" y="-5.08" visible="pad" length="middle" direction="pas" swaplevel="1" rot="R180"/>
<pin name="4" x="7.62" y="-2.54" visible="pad" length="middle" direction="pas" swaplevel="1" rot="R180"/>
<pin name="5" x="7.62" y="0" visible="pad" length="middle" direction="pas" swaplevel="1" rot="R180"/>
<pin name="6" x="7.62" y="2.54" visible="pad" length="middle" direction="pas" swaplevel="1" rot="R180"/>
<pin name="7" x="7.62" y="5.08" visible="pad" length="middle" direction="pas" swaplevel="1" rot="R180"/>
<pin name="8" x="7.62" y="7.62" visible="pad" length="middle" direction="pas" swaplevel="1" rot="R180"/>
<pin name="9" x="7.62" y="10.16" visible="pad" length="middle" direction="pas" swaplevel="1" rot="R180"/>
</symbol>
</symbols>
<devicesets>
<deviceset name="MA04-1" urn="urn:adsk.eagle:component:8375/1" prefix="SV" uservalue="yes" library_version="1">
<description>&lt;b&gt;PIN HEADER&lt;/b&gt;</description>
<gates>
<gate name="1" symbol="MA04-1" x="0" y="0"/>
</gates>
<devices>
<device name="" package="MA04-1">
<connects>
<connect gate="1" pin="1" pad="1"/>
<connect gate="1" pin="2" pad="2"/>
<connect gate="1" pin="3" pad="3"/>
<connect gate="1" pin="4" pad="4"/>
</connects>
<package3dinstances>
<package3dinstance package3d_urn="urn:adsk.eagle:package:8337/1"/>
</package3dinstances>
<technologies>
<technology name="">
<attribute name="MF" value="" constant="no"/>
<attribute name="MPN" value="" constant="no"/>
<attribute name="OC_FARNELL" value="unknown" constant="no"/>
<attribute name="OC_NEWARK" value="unknown" constant="no"/>
</technology>
</technologies>
</device>
</devices>
</deviceset>
<deviceset name="MA09-1" urn="urn:adsk.eagle:component:8396/1" prefix="SV" uservalue="yes" library_version="1">
<description>&lt;b&gt;PIN HEADER&lt;/b&gt;</description>
<gates>
<gate name="1" symbol="MA09-1" x="0" y="0"/>
</gates>
<devices>
<device name="" package="MA09-1">
<connects>
<connect gate="1" pin="1" pad="1"/>
<connect gate="1" pin="2" pad="2"/>
<connect gate="1" pin="3" pad="3"/>
<connect gate="1" pin="4" pad="4"/>
<connect gate="1" pin="5" pad="5"/>
<connect gate="1" pin="6" pad="6"/>
<connect gate="1" pin="7" pad="7"/>
<connect gate="1" pin="8" pad="8"/>
<connect gate="1" pin="9" pad="9"/>
</connects>
<package3dinstances>
<package3dinstance package3d_urn="urn:adsk.eagle:package:8350/1"/>
</package3dinstances>
<technologies>
<technology name="">
<attribute name="MF" value="" constant="no"/>
<attribute name="MPN" value="" constant="no"/>
<attribute name="OC_FARNELL" value="unknown" constant="no"/>
<attribute name="OC_NEWARK" value="unknown" constant="no"/>
</technology>
</technologies>
</device>
</devices>
</deviceset>
</devicesets>
</library>
<library name="con-subd" urn="urn:adsk.eagle:library:189">
<description>&lt;b&gt;SUB-D Connectors&lt;/b&gt;&lt;p&gt;
Harting&lt;br&gt;
NorComp&lt;br&gt;
&lt;p&gt;
PREFIX :&lt;br&gt;
H = High density&lt;br&gt;
F = Female&lt;br&gt;
M = Male&lt;p&gt;
NUMBER: Number of pins&lt;p&gt;
SUFFIX :&lt;br&gt;
H = Horizontal&lt;br&gt;
V = Vertical &lt;br&gt;
P = Shield pin on housing&lt;br&gt;
B = No mounting holes&lt;br&gt;
S = Pins individually placeable (Single)&lt;br&gt;
D = Direct mounting &lt;p&gt;
&lt;author&gt;Created by librarian@cadsoft.de&lt;/author&gt;</description>
<packages>
<package name="F09D" urn="urn:adsk.eagle:footprint:10177/1" library_version="1">
<description>&lt;b&gt;SUB-D&lt;/b&gt;</description>
<wire x1="-8.128" y1="7.239" x2="-7.62" y2="7.747" width="0.1524" layer="21" curve="-90"/>
<wire x1="7.62" y1="7.747" x2="8.128" y2="7.239" width="0.1524" layer="21" curve="-90"/>
<wire x1="-10.414" y1="0.508" x2="-10.414" y2="1.016" width="0.1524" layer="21"/>
<wire x1="-10.414" y1="0.508" x2="-10.287" y2="0.508" width="0.1524" layer="21"/>
<wire x1="-10.287" y1="-1.905" x2="-9.652" y2="-2.54" width="0.1524" layer="21" curve="90"/>
<wire x1="-10.287" y1="-1.905" x2="-10.287" y2="0.508" width="0.1524" layer="21"/>
<wire x1="-9.671" y1="-2.54" x2="9.671" y2="-2.54" width="0.1524" layer="21"/>
<wire x1="10.414" y1="0.508" x2="10.414" y2="1.016" width="0.1524" layer="21"/>
<wire x1="10.287" y1="-1.905" x2="10.287" y2="0.508" width="0.1524" layer="21"/>
<wire x1="10.287" y1="0.508" x2="10.414" y2="0.508" width="0.1524" layer="21"/>
<wire x1="9.652" y1="-2.54" x2="10.287" y2="-1.905" width="0.1524" layer="21" curve="90"/>
<wire x1="-8.128" y1="1.959" x2="-8.128" y2="7.239" width="0.1524" layer="21"/>
<wire x1="-8.763" y1="1.324" x2="-8.128" y2="1.959" width="0.1524" layer="21" curve="90"/>
<wire x1="8.128" y1="1.959" x2="8.128" y2="7.239" width="0.1524" layer="21"/>
<wire x1="8.128" y1="1.959" x2="8.763" y2="1.324" width="0.1524" layer="21" curve="90"/>
<wire x1="-7.62" y1="7.747" x2="7.62" y2="7.747" width="0.1524" layer="21"/>
<wire x1="-16.4592" y1="-2.7432" x2="-15.0876" y2="-4.1148" width="0" layer="48"/>
<wire x1="-15.0876" y1="-4.1148" x2="-13.716" y2="-2.7432" width="0" layer="48"/>
<wire x1="-13.716" y1="-2.7432" x2="-12.3444" y2="-4.1148" width="0" layer="48"/>
<wire x1="-12.3444" y1="-4.1148" x2="-10.9728" y2="-2.7432" width="0" layer="48"/>
<wire x1="10.9728" y1="-2.7432" x2="12.3444" y2="-4.1148" width="0" layer="48"/>
<wire x1="12.3444" y1="-4.1148" x2="13.716" y2="-2.7432" width="0" layer="48"/>
<wire x1="13.716" y1="-2.7432" x2="15.0876" y2="-4.1148" width="0" layer="48"/>
<wire x1="15.0876" y1="-4.1148" x2="16.4592" y2="-2.7432" width="0" layer="48"/>
<wire x1="-17.018" y1="-4.2418" x2="-10.0076" y2="-4.2418" width="0" layer="48"/>
<wire x1="10.922" y1="-4.2418" x2="17.9324" y2="-4.2418" width="0" layer="48"/>
<smd name="1" x="-5.4862" y="-6.0448" dx="1.7" dy="3.5" layer="1"/>
<smd name="2" x="-2.7434" y="-6.0448" dx="1.7" dy="3.5" layer="1"/>
<smd name="3" x="0" y="-6.045" dx="1.7" dy="3.5" layer="1"/>
<smd name="4" x="2.7434" y="-6.0448" dx="1.7" dy="3.5" layer="1"/>
<smd name="5" x="5.4862" y="-6.0448" dx="1.7" dy="3.5" layer="1"/>
<smd name="6" x="-4.1148" y="-6.0452" dx="1.7" dy="3.5" layer="16"/>
<smd name="7" x="-1.3716" y="-6.0452" dx="1.7" dy="3.5" layer="16"/>
<smd name="8" x="1.3716" y="-6.0452" dx="1.7" dy="3.5" layer="16"/>
<smd name="9" x="4.1148" y="-6.0452" dx="1.7" dy="3.5" layer="16"/>
<text x="-8.89" y="-10.16" size="1.778" layer="25" ratio="10">&gt;NAME</text>
<text x="1.27" y="-10.16" size="1.778" layer="27" ratio="10">&gt;VALUE</text>
<text x="-5.92" y="-2.1786" size="1.27" layer="21" ratio="10">1</text>
<text x="5.085" y="-2.1786" size="1.27" layer="21" ratio="10">5</text>
<text x="4.5418" y="-2.1966" size="1.27" layer="22" ratio="10" rot="MR0">9</text>
<text x="-3.5768" y="-2.1966" size="1.27" layer="22" ratio="10" rot="MR0">6</text>
<text x="11.43" y="-2.54" size="1.27" layer="48">Board</text>
<text x="-7.62" y="5.969" size="1.27" layer="51" ratio="10">F09D</text>
<text x="-16.51" y="-2.54" size="1.27" layer="48">Board </text>
<rectangle x1="-15.494" y1="0.916" x2="15.494" y2="1.424" layer="21"/>
<rectangle x1="-6.0864" y1="-6.56" x2="-4.8864" y2="-4.06" layer="51"/>
<rectangle x1="-4.7148" y1="-6.56" x2="-3.5148" y2="-4.06" layer="52"/>
<rectangle x1="-1.9716" y1="-6.56" x2="-0.7716" y2="-4.06" layer="52"/>
<rectangle x1="0.7716" y1="-6.56" x2="1.9716" y2="-4.06" layer="52"/>
<rectangle x1="-3.3432" y1="-6.56" x2="-2.1432" y2="-4.06" layer="51"/>
<rectangle x1="-0.6" y1="-6.56" x2="0.6" y2="-4.06" layer="51"/>
<rectangle x1="2.1432" y1="-6.56" x2="3.3432" y2="-4.06" layer="51"/>
<rectangle x1="4.8864" y1="-6.56" x2="6.0864" y2="-4.06" layer="51"/>
<rectangle x1="3.5148" y1="-6.56" x2="4.7148" y2="-4.06" layer="52"/>
<rectangle x1="-9.2" y1="-4.16" x2="9.2" y2="-2.56" layer="21"/>
</package>
<package name="F09H" urn="urn:adsk.eagle:footprint:10178/1" library_version="1">
<description>&lt;b&gt;SUB-D&lt;/b&gt;</description>
<wire x1="-7.62" y1="17.907" x2="-7.366" y2="17.907" width="0.1524" layer="21"/>
<wire x1="-8.128" y1="17.399" x2="-7.62" y2="17.907" width="0.1524" layer="21" curve="-90"/>
<wire x1="7.62" y1="17.907" x2="8.128" y2="17.399" width="0.1524" layer="21" curve="-90"/>
<wire x1="-15.494" y1="7.62" x2="-10.414" y2="7.62" width="0.1524" layer="21"/>
<wire x1="-15.494" y1="7.62" x2="-15.494" y2="10.668" width="0.1524" layer="21"/>
<wire x1="-15.494" y1="7.62" x2="-15.494" y2="7.493" width="0.1524" layer="21"/>
<wire x1="-15.494" y1="10.668" x2="-15.494" y2="11.176" width="0.1524" layer="21"/>
<wire x1="-15.494" y1="11.176" x2="-15.494" y2="11.684" width="0.1524" layer="21"/>
<wire x1="15.494" y1="11.684" x2="15.494" y2="11.176" width="0.1524" layer="21"/>
<wire x1="15.494" y1="11.176" x2="15.494" y2="10.668" width="0.1524" layer="21"/>
<wire x1="15.494" y1="10.668" x2="15.494" y2="7.62" width="0.1524" layer="21"/>
<wire x1="15.494" y1="7.62" x2="15.494" y2="7.493" width="0.1524" layer="21"/>
<wire x1="-15.494" y1="11.176" x2="-12.954" y2="11.176" width="0.1524" layer="21"/>
<wire x1="-12.954" y1="11.176" x2="-10.414" y2="11.176" width="0.1524" layer="21"/>
<wire x1="-10.414" y1="10.668" x2="-10.414" y2="11.176" width="0.1524" layer="21"/>
<wire x1="-10.414" y1="10.668" x2="-10.287" y2="10.668" width="0.1524" layer="21"/>
<wire x1="-10.287" y1="8.255" x2="-9.652" y2="7.62" width="0.1524" layer="21" curve="90"/>
<wire x1="-10.414" y1="7.62" x2="-9.525" y2="7.62" width="0.1524" layer="21"/>
<wire x1="-9.525" y1="7.62" x2="-9.271" y2="7.62" width="0.1524" layer="21"/>
<wire x1="-10.287" y1="8.255" x2="-10.287" y2="10.668" width="0.1524" layer="21"/>
<wire x1="-9.271" y1="7.62" x2="-9.271" y2="6.858" width="0.1524" layer="21"/>
<wire x1="-9.271" y1="7.62" x2="9.271" y2="7.62" width="0.1524" layer="21"/>
<wire x1="-9.271" y1="6.858" x2="9.271" y2="6.858" width="0.1524" layer="21"/>
<wire x1="9.271" y1="7.62" x2="9.271" y2="6.858" width="0.1524" layer="21"/>
<wire x1="9.271" y1="7.62" x2="9.525" y2="7.62" width="0.1524" layer="21"/>
<wire x1="9.525" y1="7.62" x2="10.414" y2="7.62" width="0.1524" layer="21"/>
<wire x1="12.954" y1="11.176" x2="15.494" y2="11.176" width="0.1524" layer="21"/>
<wire x1="-10.414" y1="11.176" x2="10.414" y2="11.176" width="0.1524" layer="21"/>
<wire x1="10.414" y1="11.176" x2="12.954" y2="11.176" width="0.1524" layer="21"/>
<wire x1="10.414" y1="10.668" x2="10.414" y2="11.176" width="0.1524" layer="21"/>
<wire x1="10.287" y1="8.255" x2="10.287" y2="10.668" width="0.1524" layer="21"/>
<wire x1="10.287" y1="10.668" x2="10.414" y2="10.668" width="0.1524" layer="21"/>
<wire x1="9.652" y1="7.62" x2="10.287" y2="8.255" width="0.1524" layer="21" curve="90"/>
<wire x1="-14.859" y1="-3.175" x2="-15.494" y2="-2.54" width="0.1524" layer="21"/>
<wire x1="-15.494" y1="-2.54" x2="-15.494" y2="7.493" width="0.1524" layer="21"/>
<wire x1="-10.033" y1="-3.175" x2="-14.859" y2="-3.175" width="0.1524" layer="21"/>
<wire x1="-10.033" y1="-3.175" x2="-9.525" y2="-2.667" width="0.1524" layer="21"/>
<wire x1="-9.525" y1="-2.667" x2="-9.525" y2="7.62" width="0.1524" layer="21"/>
<wire x1="9.525" y1="-2.667" x2="9.525" y2="7.62" width="0.1524" layer="21"/>
<wire x1="9.525" y1="-2.667" x2="10.033" y2="-3.175" width="0.1524" layer="21"/>
<wire x1="10.033" y1="-3.175" x2="14.986" y2="-3.175" width="0.1524" layer="21"/>
<wire x1="14.986" y1="-3.175" x2="15.494" y2="-2.667" width="0.1524" layer="21"/>
<wire x1="15.494" y1="-2.667" x2="15.494" y2="7.493" width="0.1524" layer="21"/>
<wire x1="0" y1="-1.143" x2="0" y2="-0.127" width="0.8128" layer="51"/>
<wire x1="-2.7432" y1="-1.143" x2="-2.7432" y2="-0.127" width="0.8128" layer="51"/>
<wire x1="-5.4864" y1="-1.143" x2="-5.4864" y2="-0.127" width="0.8128" layer="51"/>
<wire x1="-4.1148" y1="1.397" x2="-4.1148" y2="2.413" width="0.8128" layer="51"/>
<wire x1="-1.3716" y1="1.397" x2="-1.3716" y2="2.413" width="0.8128" layer="51"/>
<wire x1="1.3716" y1="1.397" x2="1.3716" y2="2.413" width="0.8128" layer="51"/>
<wire x1="2.7432" y1="-1.143" x2="2.7432" y2="-0.127" width="0.8128" layer="51"/>
<wire x1="4.1148" y1="1.397" x2="4.1148" y2="2.413" width="0.8128" layer="51"/>
<wire x1="5.4864" y1="-1.143" x2="5.4864" y2="-0.127" width="0.8128" layer="51"/>
<wire x1="10.414" y1="7.62" x2="15.494" y2="7.62" width="0.1524" layer="21"/>
<wire x1="-15.494" y1="11.684" x2="-7.747" y2="11.684" width="0.1524" layer="21"/>
<wire x1="-8.128" y1="12.319" x2="-8.128" y2="17.399" width="0.1524" layer="21"/>
<wire x1="-8.763" y1="11.684" x2="-8.128" y2="12.319" width="0.1524" layer="21" curve="90"/>
<wire x1="7.747" y1="11.684" x2="15.494" y2="11.684" width="0.1524" layer="21"/>
<wire x1="8.128" y1="12.319" x2="8.128" y2="17.399" width="0.1524" layer="21"/>
<wire x1="8.128" y1="12.319" x2="8.763" y2="11.684" width="0.1524" layer="21" curve="90"/>
<wire x1="7.747" y1="11.684" x2="-7.747" y2="11.684" width="0.1524" layer="21"/>
<wire x1="-7.366" y1="17.907" x2="7.366" y2="17.907" width="0.1524" layer="21"/>
<wire x1="7.366" y1="17.907" x2="7.62" y2="17.907" width="0.1524" layer="21"/>
<circle x="-12.5222" y="0" radius="1.651" width="0.1524" layer="21"/>
<circle x="-12.5222" y="0" radius="2.667" width="0" layer="42"/>
<circle x="-12.5222" y="0" radius="2.667" width="0" layer="43"/>
<circle x="12.5222" y="0" radius="2.667" width="0" layer="42"/>
<circle x="12.5222" y="0" radius="2.667" width="0" layer="43"/>
<circle x="12.5222" y="0" radius="1.651" width="0.1524" layer="21"/>
<pad name="1" x="-5.4864" y="-1.27" drill="1.016" shape="octagon"/>
<pad name="2" x="-2.7432" y="-1.27" drill="1.016" shape="octagon"/>
<pad name="3" x="0" y="-1.27" drill="1.016" shape="octagon"/>
<pad name="4" x="2.7432" y="-1.27" drill="1.016" shape="octagon"/>
<pad name="5" x="5.4864" y="-1.27" drill="1.016" shape="octagon"/>
<pad name="6" x="-4.1148" y="1.27" drill="1.016" shape="octagon"/>
<pad name="7" x="-1.3716" y="1.27" drill="1.016" shape="octagon"/>
<pad name="8" x="1.3716" y="1.27" drill="1.016" shape="octagon"/>
<pad name="9" x="4.1148" y="1.27" drill="1.016" shape="octagon"/>
<text x="-15.24" y="-6.35" size="1.778" layer="25" ratio="10">&gt;NAME</text>
<text x="-5.08" y="13.97" size="1.778" layer="27" ratio="10">&gt;VALUE</text>
<text x="-7.62" y="-1.905" size="1.27" layer="21" ratio="10">1</text>
<text x="6.985" y="-1.905" size="1.27" layer="21" ratio="10">5</text>
<text x="6.985" y="0.635" size="1.27" layer="21" ratio="10">9</text>
<text x="-7.62" y="0.635" size="1.27" layer="21" ratio="10">6</text>
<text x="14.986" y="2.54" size="1.27" layer="21" ratio="10" rot="R90">2,54</text>
<text x="-7.62" y="8.509" size="1.27" layer="21" ratio="10">F09</text>
<rectangle x1="-9.271" y1="6.858" x2="9.271" y2="7.62" layer="21"/>
<rectangle x1="-15.494" y1="11.176" x2="15.494" y2="11.684" layer="21"/>
<rectangle x1="-5.8928" y1="-0.381" x2="-5.08" y2="6.858" layer="21"/>
<rectangle x1="-4.5212" y1="2.159" x2="-3.7084" y2="6.858" layer="21"/>
<rectangle x1="-3.1496" y1="-0.381" x2="-2.3368" y2="6.858" layer="21"/>
<rectangle x1="-1.778" y1="2.159" x2="-0.9652" y2="6.858" layer="21"/>
<rectangle x1="-0.4064" y1="-0.381" x2="0.4064" y2="6.858" layer="21"/>
<rectangle x1="0.9652" y1="2.159" x2="1.778" y2="6.858" layer="21"/>
<rectangle x1="2.3368" y1="-0.381" x2="3.1496" y2="6.858" layer="21"/>
<rectangle x1="3.7084" y1="2.159" x2="4.5212" y2="6.858" layer="21"/>
<rectangle x1="5.08" y1="-0.381" x2="5.8928" y2="6.858" layer="21"/>
<hole x="-12.5222" y="0" drill="3.302"/>
<hole x="12.5222" y="0" drill="3.302"/>
</package>
<package name="F09HP" urn="urn:adsk.eagle:footprint:10102/1" library_version="1">
<description>&lt;b&gt;SUB-D&lt;/b&gt;</description>
<wire x1="-7.62" y1="17.907" x2="-7.366" y2="17.907" width="0.1524" layer="21"/>
<wire x1="-8.128" y1="17.399" x2="-7.62" y2="17.907" width="0.1524" layer="21" curve="-90"/>
<wire x1="7.62" y1="17.907" x2="8.128" y2="17.399" width="0.1524" layer="21" curve="-90"/>
<wire x1="-7.747" y1="11.684" x2="7.747" y2="11.684" width="0.1524" layer="21"/>
<wire x1="-15.494" y1="7.62" x2="-10.414" y2="7.62" width="0.1524" layer="21"/>
<wire x1="-15.494" y1="7.62" x2="-15.494" y2="10.668" width="0.1524" layer="21"/>
<wire x1="-15.494" y1="7.62" x2="-15.494" y2="7.493" width="0.1524" layer="21"/>
<wire x1="-15.494" y1="10.668" x2="-15.494" y2="11.176" width="0.1524" layer="21"/>
<wire x1="-15.494" y1="11.176" x2="-15.494" y2="11.684" width="0.1524" layer="21"/>
<wire x1="15.494" y1="11.684" x2="15.494" y2="11.176" width="0.1524" layer="21"/>
<wire x1="15.494" y1="11.176" x2="15.494" y2="10.668" width="0.1524" layer="21"/>
<wire x1="15.494" y1="10.668" x2="15.494" y2="7.62" width="0.1524" layer="21"/>
<wire x1="15.494" y1="7.62" x2="15.494" y2="7.493" width="0.1524" layer="21"/>
<wire x1="-15.494" y1="11.176" x2="-12.954" y2="11.176" width="0.1524" layer="21"/>
<wire x1="-12.954" y1="11.176" x2="-10.414" y2="11.176" width="0.1524" layer="21"/>
<wire x1="-10.414" y1="10.668" x2="-10.414" y2="11.176" width="0.1524" layer="21"/>
<wire x1="-10.414" y1="10.668" x2="-10.287" y2="10.668" width="0.1524" layer="21"/>
<wire x1="-10.287" y1="8.255" x2="-9.652" y2="7.62" width="0.1524" layer="21" curve="90"/>
<wire x1="-10.414" y1="7.62" x2="-9.525" y2="7.62" width="0.1524" layer="21"/>
<wire x1="-9.525" y1="7.62" x2="-9.271" y2="7.62" width="0.1524" layer="21"/>
<wire x1="-10.287" y1="8.255" x2="-10.287" y2="10.668" width="0.1524" layer="21"/>
<wire x1="-9.271" y1="7.62" x2="-9.271" y2="6.858" width="0.1524" layer="21"/>
<wire x1="-9.271" y1="7.62" x2="9.271" y2="7.62" width="0.1524" layer="21"/>
<wire x1="-9.271" y1="6.858" x2="9.271" y2="6.858" width="0.1524" layer="21"/>
<wire x1="9.271" y1="7.62" x2="9.271" y2="6.858" width="0.1524" layer="21"/>
<wire x1="9.271" y1="7.62" x2="9.525" y2="7.62" width="0.1524" layer="21"/>
<wire x1="9.525" y1="7.62" x2="10.414" y2="7.62" width="0.1524" layer="21"/>
<wire x1="12.954" y1="11.176" x2="15.494" y2="11.176" width="0.1524" layer="21"/>
<wire x1="-10.414" y1="11.176" x2="10.414" y2="11.176" width="0.1524" layer="21"/>
<wire x1="10.414" y1="11.176" x2="12.954" y2="11.176" width="0.1524" layer="21"/>
<wire x1="10.414" y1="10.668" x2="10.414" y2="11.176" width="0.1524" layer="21"/>
<wire x1="10.287" y1="8.255" x2="10.287" y2="10.668" width="0.1524" layer="21"/>
<wire x1="10.287" y1="10.668" x2="10.414" y2="10.668" width="0.1524" layer="21"/>
<wire x1="9.652" y1="7.62" x2="10.287" y2="8.255" width="0.1524" layer="21" curve="90"/>
<wire x1="-14.859" y1="-3.175" x2="-15.494" y2="-2.54" width="0.1524" layer="21"/>
<wire x1="-15.494" y1="-2.54" x2="-15.494" y2="7.493" width="0.1524" layer="21"/>
<wire x1="-10.033" y1="-3.175" x2="-14.859" y2="-3.175" width="0.1524" layer="21"/>
<wire x1="-10.033" y1="-3.175" x2="-9.525" y2="-2.667" width="0.1524" layer="21"/>
<wire x1="-9.525" y1="-2.667" x2="-9.525" y2="7.62" width="0.1524" layer="21"/>
<wire x1="9.525" y1="-2.667" x2="9.525" y2="7.62" width="0.1524" layer="21"/>
<wire x1="9.525" y1="-2.667" x2="10.033" y2="-3.175" width="0.1524" layer="21"/>
<wire x1="10.033" y1="-3.175" x2="14.986" y2="-3.175" width="0.1524" layer="21"/>
<wire x1="14.986" y1="-3.175" x2="15.494" y2="-2.667" width="0.1524" layer="21"/>
<wire x1="15.494" y1="-2.667" x2="15.494" y2="7.493" width="0.1524" layer="21"/>
<wire x1="0" y1="-1.143" x2="0" y2="-0.127" width="0.8128" layer="51"/>
<wire x1="-2.7432" y1="-1.143" x2="-2.7432" y2="-0.127" width="0.8128" layer="51"/>
<wire x1="-5.4864" y1="-1.143" x2="-5.4864" y2="-0.127" width="0.8128" layer="51"/>
<wire x1="-4.1148" y1="1.397" x2="-4.1148" y2="2.413" width="0.8128" layer="51"/>
<wire x1="-1.3716" y1="1.397" x2="-1.3716" y2="2.413" width="0.8128" layer="51"/>
<wire x1="1.3462" y1="1.397" x2="1.3462" y2="2.413" width="0.8128" layer="51"/>
<wire x1="2.7432" y1="-1.143" x2="2.7432" y2="-0.127" width="0.8128" layer="51"/>
<wire x1="4.1148" y1="1.397" x2="4.1148" y2="2.413" width="0.8128" layer="51"/>
<wire x1="5.4864" y1="-1.143" x2="5.4864" y2="-0.127" width="0.8128" layer="51"/>
<wire x1="10.414" y1="7.62" x2="15.494" y2="7.62" width="0.1524" layer="21"/>
<wire x1="-15.494" y1="11.684" x2="-7.747" y2="11.684" width="0.1524" layer="21"/>
<wire x1="-8.128" y1="12.319" x2="-8.128" y2="17.399" width="0.1524" layer="21"/>
<wire x1="-8.763" y1="11.684" x2="-8.128" y2="12.319" width="0.1524" layer="21" curve="90"/>
<wire x1="7.747" y1="11.684" x2="15.494" y2="11.684" width="0.1524" layer="21"/>
<wire x1="8.128" y1="12.319" x2="8.128" y2="17.399" width="0.1524" layer="21"/>
<wire x1="8.128" y1="12.319" x2="8.763" y2="11.684" width="0.1524" layer="21" curve="90"/>
<wire x1="-7.366" y1="17.907" x2="7.366" y2="17.907" width="0.1524" layer="21"/>
<wire x1="7.366" y1="17.907" x2="7.62" y2="17.907" width="0.1524" layer="21"/>
<circle x="-12.5222" y="0" radius="1.651" width="0.1524" layer="21"/>
<circle x="12.5222" y="0" radius="1.651" width="0.1524" layer="21"/>
<pad name="1" x="-5.4864" y="-1.27" drill="1.016" shape="octagon"/>
<pad name="2" x="-2.7432" y="-1.27" drill="1.016" shape="octagon"/>
<pad name="3" x="0" y="-1.27" drill="1.016" shape="octagon"/>
<pad name="4" x="2.7432" y="-1.27" drill="1.016" shape="octagon"/>
<pad name="5" x="5.4864" y="-1.27" drill="1.016" shape="octagon"/>
<pad name="6" x="-4.1148" y="1.27" drill="1.016" shape="octagon"/>
<pad name="7" x="-1.3716" y="1.27" drill="1.016" shape="octagon"/>
<pad name="8" x="1.3716" y="1.27" drill="1.016" shape="octagon"/>
<pad name="9" x="4.1148" y="1.27" drill="1.016" shape="octagon"/>
<pad name="G1" x="-12.5222" y="0" drill="3.302" diameter="5.08"/>
<pad name="G2" x="12.5222" y="0" drill="3.302" diameter="5.08"/>
<text x="-15.24" y="-6.35" size="1.778" layer="25" ratio="10">&gt;NAME</text>
<text x="-5.08" y="13.97" size="1.778" layer="27" ratio="10">&gt;VALUE</text>
<text x="-7.62" y="-1.905" size="1.27" layer="21" ratio="10">1</text>
<text x="6.985" y="-1.905" size="1.27" layer="21" ratio="10">5</text>
<text x="6.985" y="0.635" size="1.27" layer="21" ratio="10">9</text>
<text x="-7.62" y="0.635" size="1.27" layer="21" ratio="10">6</text>
<text x="14.986" y="2.54" size="1.27" layer="21" ratio="10" rot="R90">2,54</text>
<text x="-7.62" y="8.509" size="1.27" layer="21" ratio="10">F09</text>
<rectangle x1="-9.271" y1="6.858" x2="9.271" y2="7.62" layer="21"/>
<rectangle x1="-15.494" y1="11.176" x2="15.494" y2="11.684" layer="21"/>
<rectangle x1="-5.8928" y1="-0.381" x2="-5.08" y2="6.858" layer="21"/>
<rectangle x1="-4.5212" y1="2.159" x2="-3.7084" y2="6.858" layer="21"/>
<rectangle x1="-3.1496" y1="-0.381" x2="-2.3368" y2="6.858" layer="21"/>
<rectangle x1="-1.778" y1="2.159" x2="-0.9652" y2="6.858" layer="21"/>
<rectangle x1="-0.4318" y1="-0.381" x2="0.381" y2="6.858" layer="21"/>
<rectangle x1="0.9398" y1="2.159" x2="1.7526" y2="6.858" layer="21"/>
<rectangle x1="2.3368" y1="-0.381" x2="3.1496" y2="6.858" layer="21"/>
<rectangle x1="3.7084" y1="2.159" x2="4.5212" y2="6.858" layer="21"/>
<rectangle x1="5.08" y1="-0.381" x2="5.8928" y2="6.858" layer="21"/>
</package>
<package name="F09V" urn="urn:adsk.eagle:footprint:10179/1" library_version="1">
<description>&lt;b&gt;SUB-D&lt;/b&gt;</description>
<wire x1="-7.5184" y1="-2.9464" x2="-8.3058" y2="2.3368" width="0.1524" layer="21"/>
<wire x1="6.223" y1="-3.937" x2="7.5317" y2="-2.905" width="0.1524" layer="21" curve="76.489196"/>
<wire x1="6.985" y1="3.937" x2="8.3005" y2="2.3038" width="0.1524" layer="21" curve="-102.298925"/>
<wire x1="8.3058" y1="2.3114" x2="7.5184" y2="-2.921" width="0.1524" layer="21"/>
<wire x1="-6.985" y1="3.937" x2="6.985" y2="3.937" width="0.1524" layer="21"/>
<wire x1="-8.3051" y1="2.3268" x2="-6.985" y2="3.937" width="0.1524" layer="21" curve="-101.30773"/>
<wire x1="-7.5259" y1="-2.9295" x2="-6.223" y2="-3.937" width="0.1524" layer="21" curve="75.428151"/>
<wire x1="-6.223" y1="-3.937" x2="6.223" y2="-3.937" width="0.1524" layer="21"/>
<wire x1="-12.7" y1="-6.223" x2="-12.7" y2="-6.096" width="0.1524" layer="21"/>
<wire x1="-12.7" y1="-6.223" x2="-10.16" y2="-6.223" width="0.1524" layer="21"/>
<wire x1="-12.7" y1="-6.096" x2="-10.16" y2="-6.096" width="0.1524" layer="21"/>
<wire x1="-10.16" y1="-6.096" x2="-10.16" y2="-6.223" width="0.1524" layer="21"/>
<wire x1="-10.16" y1="-6.223" x2="10.16" y2="-6.223" width="0.1524" layer="21"/>
<wire x1="-14.859" y1="-6.223" x2="-12.7" y2="-6.223" width="0.1524" layer="21"/>
<wire x1="-15.494" y1="-5.588" x2="-14.859" y2="-6.223" width="0.1524" layer="21" curve="90"/>
<wire x1="14.859" y1="-6.223" x2="15.494" y2="-5.588" width="0.1524" layer="21" curve="90"/>
<wire x1="14.859" y1="6.223" x2="12.7" y2="6.223" width="0.1524" layer="21"/>
<wire x1="15.494" y1="5.588" x2="15.494" y2="-5.588" width="0.1524" layer="21"/>
<wire x1="14.859" y1="6.223" x2="15.494" y2="5.588" width="0.1524" layer="21" curve="-90"/>
<wire x1="-15.494" y1="5.588" x2="-15.494" y2="-5.588" width="0.1524" layer="21"/>
<wire x1="-15.494" y1="5.588" x2="-14.859" y2="6.223" width="0.1524" layer="21" curve="-90"/>
<wire x1="10.16" y1="-6.223" x2="10.16" y2="-6.096" width="0.1524" layer="21"/>
<wire x1="10.16" y1="-6.223" x2="12.7" y2="-6.223" width="0.1524" layer="21"/>
<wire x1="10.16" y1="-6.096" x2="12.7" y2="-6.096" width="0.1524" layer="21"/>
<wire x1="12.7" y1="-6.096" x2="12.7" y2="-6.223" width="0.1524" layer="21"/>
<wire x1="12.7" y1="-6.223" x2="14.859" y2="-6.223" width="0.1524" layer="21"/>
<wire x1="10.16" y1="6.223" x2="10.16" y2="6.096" width="0.1524" layer="21"/>
<wire x1="10.16" y1="6.223" x2="-10.16" y2="6.223" width="0.1524" layer="21"/>
<wire x1="10.16" y1="6.096" x2="12.7" y2="6.096" width="0.1524" layer="21"/>
<wire x1="12.7" y1="6.096" x2="12.7" y2="6.223" width="0.1524" layer="21"/>
<wire x1="12.7" y1="6.223" x2="10.16" y2="6.223" width="0.1524" layer="21"/>
<wire x1="-12.7" y1="6.223" x2="-12.7" y2="6.096" width="0.1524" layer="21"/>
<wire x1="-12.7" y1="6.223" x2="-14.859" y2="6.223" width="0.1524" layer="21"/>
<wire x1="-12.7" y1="6.096" x2="-10.16" y2="6.096" width="0.1524" layer="21"/>
<wire x1="-10.16" y1="6.096" x2="-10.16" y2="6.223" width="0.1524" layer="21"/>
<wire x1="-10.16" y1="6.223" x2="-12.7" y2="6.223" width="0.1524" layer="21"/>
<circle x="-12.5222" y="0" radius="2.667" width="0" layer="42"/>
<circle x="-12.5222" y="0" radius="2.667" width="0" layer="43"/>
<circle x="12.5222" y="0" radius="2.667" width="0" layer="42"/>
<circle x="12.5222" y="0" radius="2.667" width="0" layer="43"/>
<circle x="1.3716" y="-1.4224" radius="0.762" width="0.254" layer="51"/>
<circle x="2.7432" y="1.4224" radius="0.762" width="0.254" layer="51"/>
<circle x="4.1148" y="-1.4224" radius="0.762" width="0.254" layer="51"/>
<circle x="5.4864" y="1.4224" radius="0.762" width="0.254" layer="51"/>
<circle x="0" y="1.4224" radius="0.762" width="0.254" layer="51"/>
<circle x="-1.3716" y="-1.4224" radius="0.762" width="0.254" layer="51"/>
<circle x="-2.7432" y="1.4224" radius="0.762" width="0.254" layer="51"/>
<circle x="-4.1148" y="-1.4224" radius="0.762" width="0.254" layer="51"/>
<circle x="-5.4864" y="1.4224" radius="0.762" width="0.254" layer="51"/>
<circle x="-12.5222" y="0" radius="1.651" width="0.1524" layer="21"/>
<circle x="12.5222" y="0" radius="1.651" width="0.1524" layer="21"/>
<pad name="1" x="5.4864" y="1.4224" drill="1.016" shape="octagon"/>
<pad name="2" x="2.7432" y="1.4224" drill="1.016" shape="octagon"/>
<pad name="3" x="0" y="1.4224" drill="1.016" shape="octagon"/>
<pad name="4" x="-2.7432" y="1.4224" drill="1.016" shape="octagon"/>
<pad name="5" x="-5.4864" y="1.4224" drill="1.016" shape="octagon"/>
<pad name="6" x="4.1148" y="-1.4224" drill="1.016" shape="octagon"/>
<pad name="7" x="1.3716" y="-1.4224" drill="1.016" shape="octagon"/>
<pad name="8" x="-1.3716" y="-1.4224" drill="1.016" shape="octagon"/>
<pad name="9" x="-4.1148" y="-1.4224" drill="1.016" shape="octagon"/>
<text x="5.08" y="2.54" size="0.9906" layer="21" ratio="12">1</text>
<text x="2.286" y="2.54" size="0.9906" layer="21" ratio="12">2</text>
<text x="-0.508" y="2.54" size="0.9906" layer="21" ratio="12">3</text>
<text x="-3.175" y="2.54" size="0.9906" layer="21" ratio="12">4</text>
<text x="-5.969" y="2.54" size="0.9906" layer="21" ratio="12">5</text>
<text x="3.81" y="-3.556" size="0.9906" layer="21" ratio="12">6</text>
<text x="1.016" y="-3.556" size="0.9906" layer="21" ratio="12">7</text>
<text x="-1.778" y="-3.556" size="0.9906" layer="21" ratio="12">8</text>
<text x="-4.572" y="-3.556" size="0.9906" layer="21" ratio="12">9</text>
<text x="-15.367" y="6.985" size="1.778" layer="25" ratio="10">&gt;NAME</text>
<text x="-2.54" y="6.985" size="1.778" layer="27" ratio="10">&gt;VALUE</text>
<hole x="-12.5222" y="0" drill="3.302"/>
<hole x="12.5222" y="0" drill="3.302"/>
</package>
<package name="F09VP" urn="urn:adsk.eagle:footprint:10103/1" library_version="1">
<description>&lt;b&gt;SUB-D&lt;/b&gt;</description>
<wire x1="-7.5184" y1="-2.9464" x2="-8.3058" y2="2.3368" width="0.1524" layer="21"/>
<wire x1="6.223" y1="-3.937" x2="7.5317" y2="-2.905" width="0.1524" layer="21" curve="76.489196"/>
<wire x1="6.985" y1="3.937" x2="8.3005" y2="2.3038" width="0.1524" layer="21" curve="-102.298925"/>
<wire x1="8.3058" y1="2.3114" x2="7.5184" y2="-2.921" width="0.1524" layer="21"/>
<wire x1="-6.985" y1="3.937" x2="6.985" y2="3.937" width="0.1524" layer="21"/>
<wire x1="-8.3051" y1="2.3268" x2="-6.985" y2="3.937" width="0.1524" layer="21" curve="-101.30773"/>
<wire x1="-7.5259" y1="-2.9295" x2="-6.223" y2="-3.937" width="0.1524" layer="21" curve="75.428151"/>
<wire x1="-6.223" y1="-3.937" x2="6.223" y2="-3.937" width="0.1524" layer="21"/>
<wire x1="-12.7" y1="-6.223" x2="-12.7" y2="-6.096" width="0.1524" layer="21"/>
<wire x1="-12.7" y1="-6.223" x2="-10.16" y2="-6.223" width="0.1524" layer="21"/>
<wire x1="-12.7" y1="-6.096" x2="-10.16" y2="-6.096" width="0.1524" layer="21"/>
<wire x1="-10.16" y1="-6.096" x2="-10.16" y2="-6.223" width="0.1524" layer="21"/>
<wire x1="-10.16" y1="-6.223" x2="10.16" y2="-6.223" width="0.1524" layer="21"/>
<wire x1="-14.859" y1="-6.223" x2="-12.7" y2="-6.223" width="0.1524" layer="21"/>
<wire x1="-15.494" y1="-5.588" x2="-14.859" y2="-6.223" width="0.1524" layer="21" curve="90"/>
<wire x1="14.859" y1="-6.223" x2="15.494" y2="-5.588" width="0.1524" layer="21" curve="90"/>
<wire x1="14.859" y1="6.223" x2="12.7" y2="6.223" width="0.1524" layer="21"/>
<wire x1="15.494" y1="5.588" x2="15.494" y2="-5.588" width="0.1524" layer="21"/>
<wire x1="14.859" y1="6.223" x2="15.494" y2="5.588" width="0.1524" layer="21" curve="-90"/>
<wire x1="-15.494" y1="5.588" x2="-15.494" y2="-5.588" width="0.1524" layer="21"/>
<wire x1="-15.494" y1="5.588" x2="-14.859" y2="6.223" width="0.1524" layer="21" curve="-90"/>
<wire x1="10.16" y1="-6.223" x2="10.16" y2="-6.096" width="0.1524" layer="21"/>
<wire x1="10.16" y1="-6.223" x2="12.7" y2="-6.223" width="0.1524" layer="21"/>
<wire x1="10.16" y1="-6.096" x2="12.7" y2="-6.096" width="0.1524" layer="21"/>
<wire x1="12.7" y1="-6.096" x2="12.7" y2="-6.223" width="0.1524" layer="21"/>
<wire x1="12.7" y1="-6.223" x2="14.859" y2="-6.223" width="0.1524" layer="21"/>
<wire x1="10.16" y1="6.223" x2="10.16" y2="6.096" width="0.1524" layer="21"/>
<wire x1="10.16" y1="6.223" x2="-10.16" y2="6.223" width="0.1524" layer="21"/>
<wire x1="10.16" y1="6.096" x2="12.7" y2="6.096" width="0.1524" layer="21"/>
<wire x1="12.7" y1="6.096" x2="12.7" y2="6.223" width="0.1524" layer="21"/>
<wire x1="12.7" y1="6.223" x2="10.16" y2="6.223" width="0.1524" layer="21"/>
<wire x1="-12.7" y1="6.223" x2="-12.7" y2="6.096" width="0.1524" layer="21"/>
<wire x1="-12.7" y1="6.223" x2="-14.859" y2="6.223" width="0.1524" layer="21"/>
<wire x1="-12.7" y1="6.096" x2="-10.16" y2="6.096" width="0.1524" layer="21"/>
<wire x1="-10.16" y1="6.096" x2="-10.16" y2="6.223" width="0.1524" layer="21"/>
<wire x1="-10.16" y1="6.223" x2="-12.7" y2="6.223" width="0.1524" layer="21"/>
<circle x="1.3716" y="-1.4224" radius="0.762" width="0.254" layer="51"/>
<circle x="2.7432" y="1.4224" radius="0.762" width="0.254" layer="51"/>
<circle x="4.1148" y="-1.4224" radius="0.762" width="0.254" layer="51"/>
<circle x="5.4864" y="1.4224" radius="0.762" width="0.254" layer="51"/>
<circle x="0" y="1.4224" radius="0.762" width="0.254" layer="51"/>
<circle x="-1.3716" y="-1.4224" radius="0.762" width="0.254" layer="51"/>
<circle x="-2.7432" y="1.4224" radius="0.762" width="0.254" layer="51"/>
<circle x="-4.1148" y="-1.4224" radius="0.762" width="0.254" layer="51"/>
<circle x="-5.4864" y="1.4224" radius="0.762" width="0.254" layer="51"/>
<circle x="-12.5222" y="0" radius="1.651" width="0.1524" layer="21"/>
<circle x="12.5222" y="0" radius="1.651" width="0.1524" layer="21"/>
<pad name="1" x="5.4864" y="1.4224" drill="1.016" shape="octagon"/>
<pad name="2" x="2.7432" y="1.4224" drill="1.016" shape="octagon"/>
<pad name="3" x="0" y="1.4224" drill="1.016" shape="octagon"/>
<pad name="4" x="-2.7432" y="1.4224" drill="1.016" shape="octagon"/>
<pad name="5" x="-5.4864" y="1.4224" drill="1.016" shape="octagon"/>
<pad name="6" x="4.1148" y="-1.4224" drill="1.016" shape="octagon"/>
<pad name="7" x="1.3716" y="-1.4224" drill="1.016" shape="octagon"/>
<pad name="8" x="-1.3716" y="-1.4224" drill="1.016" shape="octagon"/>
<pad name="9" x="-4.1148" y="-1.4224" drill="1.016" shape="octagon"/>
<pad name="G1" x="-12.5222" y="0" drill="3.302" diameter="5.08"/>
<pad name="G2" x="12.5222" y="0" drill="3.302" diameter="5.08"/>
<text x="5.08" y="2.54" size="0.9906" layer="21" ratio="12">1</text>
<text x="2.286" y="2.54" size="0.9906" layer="21" ratio="12">2</text>
<text x="-0.508" y="2.54" size="0.9906" layer="21" ratio="12">3</text>
<text x="-3.175" y="2.54" size="0.9906" layer="21" ratio="12">4</text>
<text x="-5.969" y="2.54" size="0.9906" layer="21" ratio="12">5</text>
<text x="3.81" y="-3.556" size="0.9906" layer="21" ratio="12">6</text>
<text x="1.016" y="-3.556" size="0.9906" layer="21" ratio="12">7</text>
<text x="-1.778" y="-3.556" size="0.9906" layer="21" ratio="12">8</text>
<text x="-4.572" y="-3.556" size="0.9906" layer="21" ratio="12">9</text>
<text x="-15.367" y="6.985" size="1.778" layer="25" ratio="10">&gt;NAME</text>
<text x="-2.54" y="6.985" size="1.778" layer="27" ratio="10">&gt;VALUE</text>
</package>
<package name="F09VB" urn="urn:adsk.eagle:footprint:10180/1" library_version="1">
<description>&lt;b&gt;SUB-D&lt;/b&gt;</description>
<wire x1="7.5184" y1="2.9464" x2="8.3058" y2="-2.3368" width="0.1524" layer="21"/>
<wire x1="-7.5317" y1="2.905" x2="-6.223" y2="3.937" width="0.1524" layer="21" curve="-76.489196"/>
<wire x1="-8.3005" y1="-2.3038" x2="-6.985" y2="-3.937" width="0.1524" layer="21" curve="102.298925"/>
<wire x1="-8.3058" y1="-2.3114" x2="-7.5184" y2="2.921" width="0.1524" layer="21"/>
<wire x1="6.985" y1="-3.937" x2="-6.985" y2="-3.937" width="0.1524" layer="21"/>
<wire x1="6.985" y1="-3.937" x2="8.3051" y2="-2.3268" width="0.1524" layer="21" curve="101.30773"/>
<wire x1="6.223" y1="3.937" x2="7.5259" y2="2.9295" width="0.1524" layer="21" curve="-75.428151"/>
<wire x1="6.223" y1="3.937" x2="-6.223" y2="3.937" width="0.1524" layer="21"/>
<wire x1="12.7" y1="6.223" x2="12.7" y2="6.096" width="0.1524" layer="21"/>
<wire x1="12.7" y1="6.223" x2="10.16" y2="6.223" width="0.1524" layer="21"/>
<wire x1="12.7" y1="6.096" x2="10.16" y2="6.096" width="0.1524" layer="21"/>
<wire x1="10.16" y1="6.096" x2="10.16" y2="6.223" width="0.1524" layer="21"/>
<wire x1="10.16" y1="6.223" x2="-10.16" y2="6.223" width="0.1524" layer="21"/>
<wire x1="14.859" y1="6.223" x2="12.7" y2="6.223" width="0.1524" layer="21"/>
<wire x1="14.859" y1="6.223" x2="15.494" y2="5.588" width="0.1524" layer="21" curve="-90"/>
<wire x1="-15.494" y1="5.588" x2="-14.859" y2="6.223" width="0.1524" layer="21" curve="-90"/>
<wire x1="-14.859" y1="-6.223" x2="-12.7" y2="-6.223" width="0.1524" layer="21"/>
<wire x1="-15.494" y1="-5.588" x2="-15.494" y2="5.588" width="0.1524" layer="21"/>
<wire x1="-15.494" y1="-5.588" x2="-14.859" y2="-6.223" width="0.1524" layer="21" curve="90"/>
<wire x1="15.494" y1="-5.588" x2="15.494" y2="5.588" width="0.1524" layer="21"/>
<wire x1="14.859" y1="-6.223" x2="15.494" y2="-5.588" width="0.1524" layer="21" curve="90"/>
<wire x1="-10.16" y1="6.223" x2="-10.16" y2="6.096" width="0.1524" layer="21"/>
<wire x1="-10.16" y1="6.223" x2="-12.7" y2="6.223" width="0.1524" layer="21"/>
<wire x1="-10.16" y1="6.096" x2="-12.7" y2="6.096" width="0.1524" layer="21"/>
<wire x1="-12.7" y1="6.096" x2="-12.7" y2="6.223" width="0.1524" layer="21"/>
<wire x1="-12.7" y1="6.223" x2="-14.859" y2="6.223" width="0.1524" layer="21"/>
<wire x1="-10.16" y1="-6.223" x2="-10.16" y2="-6.096" width="0.1524" layer="21"/>
<wire x1="-10.16" y1="-6.223" x2="10.16" y2="-6.223" width="0.1524" layer="21"/>
<wire x1="-10.16" y1="-6.096" x2="-12.7" y2="-6.096" width="0.1524" layer="21"/>
<wire x1="-12.7" y1="-6.096" x2="-12.7" y2="-6.223" width="0.1524" layer="21"/>
<wire x1="-12.7" y1="-6.223" x2="-10.16" y2="-6.223" width="0.1524" layer="21"/>
<wire x1="12.7" y1="-6.223" x2="12.7" y2="-6.096" width="0.1524" layer="21"/>
<wire x1="12.7" y1="-6.223" x2="14.859" y2="-6.223" width="0.1524" layer="21"/>
<wire x1="12.7" y1="-6.096" x2="10.16" y2="-6.096" width="0.1524" layer="21"/>
<wire x1="10.16" y1="-6.096" x2="10.16" y2="-6.223" width="0.1524" layer="21"/>
<wire x1="10.16" y1="-6.223" x2="12.7" y2="-6.223" width="0.1524" layer="21"/>
<circle x="-1.3716" y="1.4224" radius="0.762" width="0.254" layer="51"/>
<circle x="-2.7432" y="-1.4224" radius="0.762" width="0.254" layer="51"/>
<circle x="-4.1148" y="1.4224" radius="0.762" width="0.254" layer="51"/>
<circle x="-5.4864" y="-1.4224" radius="0.762" width="0.254" layer="51"/>
<circle x="0" y="-1.4224" radius="0.762" width="0.254" layer="51"/>
<circle x="1.3716" y="1.4224" radius="0.762" width="0.254" layer="51"/>
<circle x="2.7432" y="-1.4224" radius="0.762" width="0.254" layer="51"/>
<circle x="4.1148" y="1.4224" radius="0.762" width="0.254" layer="51"/>
<circle x="5.4864" y="-1.4224" radius="0.762" width="0.254" layer="51"/>
<pad name="1" x="-5.4864" y="-1.4224" drill="1.016" shape="octagon"/>
<pad name="2" x="-2.7432" y="-1.4224" drill="1.016" shape="octagon"/>
<pad name="3" x="0" y="-1.4224" drill="1.016" shape="octagon"/>
<pad name="4" x="2.7432" y="-1.4224" drill="1.016" shape="octagon"/>
<pad name="5" x="5.4864" y="-1.4224" drill="1.016" shape="octagon"/>
<pad name="6" x="-4.1148" y="1.4224" drill="1.016" shape="octagon"/>
<pad name="7" x="-1.3716" y="1.4224" drill="1.016" shape="octagon"/>
<pad name="8" x="1.3716" y="1.4224" drill="1.016" shape="octagon"/>
<pad name="9" x="4.1148" y="1.4224" drill="1.016" shape="octagon"/>
<text x="-5.08" y="-2.54" size="0.9906" layer="21" ratio="12" rot="R180">1</text>
<text x="-2.286" y="-2.54" size="0.9906" layer="21" ratio="12" rot="R180">2</text>
<text x="0.508" y="-2.54" size="0.9906" layer="21" ratio="12" rot="R180">3</text>
<text x="3.175" y="-2.54" size="0.9906" layer="21" ratio="12" rot="R180">4</text>
<text x="5.969" y="-2.54" size="0.9906" layer="21" ratio="12" rot="R180">5</text>
<text x="-3.81" y="3.556" size="0.9906" layer="21" ratio="12" rot="R180">6</text>
<text x="-1.016" y="3.556" size="0.9906" layer="21" ratio="12" rot="R180">7</text>
<text x="1.778" y="3.556" size="0.9906" layer="21" ratio="12" rot="R180">8</text>
<text x="4.572" y="3.556" size="0.9906" layer="21" ratio="12" rot="R180">9</text>
<text x="-15.367" y="8.255" size="1.778" layer="25" ratio="10">&gt;NAME</text>
<text x="0" y="8.255" size="1.778" layer="27" ratio="10">&gt;VALUE</text>
</package>
</packages>
<packages3d>
<package3d name="F09D" urn="urn:adsk.eagle:package:10273/1" type="box" library_version="1">
<description>SUB-D</description>
</package3d>
<package3d name="F09H" urn="urn:adsk.eagle:package:10276/1" type="box" library_version="1">
<description>SUB-D</description>
</package3d>
<package3d name="F09HP" urn="urn:adsk.eagle:package:10232/1" type="box" library_version="1">
<description>SUB-D</description>
</package3d>
<package3d name="F09V" urn="urn:adsk.eagle:package:10277/1" type="box" library_version="1">
<description>SUB-D</description>
</package3d>
<package3d name="F09VP" urn="urn:adsk.eagle:package:10230/1" type="box" library_version="1">
<description>SUB-D</description>
</package3d>
<package3d name="F09VB" urn="urn:adsk.eagle:package:10282/1" type="box" library_version="1">
<description>SUB-D</description>
</package3d>
</packages3d>
<symbols>
<symbol name="F09" urn="urn:adsk.eagle:symbol:10176/1" library_version="1">
<wire x1="-1.651" y1="3.429" x2="-1.651" y2="1.651" width="0.254" layer="94" curve="180" cap="flat"/>
<wire x1="1.524" y1="1.651" x2="1.524" y2="3.429" width="0.254" layer="94" curve="180" cap="flat"/>
<wire x1="-1.651" y1="5.969" x2="-1.651" y2="4.191" width="0.254" layer="94" curve="180" cap="flat"/>
<wire x1="1.524" y1="-3.429" x2="1.524" y2="-1.651" width="0.254" layer="94" curve="180" cap="flat"/>
<wire x1="-1.651" y1="0.889" x2="-1.651" y2="-0.889" width="0.254" layer="94" curve="180" cap="flat"/>
<wire x1="1.524" y1="-0.889" x2="1.524" y2="0.889" width="0.254" layer="94" curve="180" cap="flat"/>
<wire x1="-1.651" y1="-1.651" x2="-1.651" y2="-3.429" width="0.254" layer="94" curve="180" cap="flat"/>
<wire x1="1.524" y1="-5.969" x2="1.524" y2="-4.191" width="0.254" layer="94" curve="180" cap="flat"/>
<wire x1="-1.651" y1="-4.191" x2="-1.651" y2="-5.969" width="0.254" layer="94" curve="180" cap="flat"/>
<wire x1="-4.064" y1="6.9312" x2="-2.5226" y2="8.172" width="0.4064" layer="94" curve="-102.324066" cap="flat"/>
<wire x1="-2.5226" y1="8.1718" x2="3.0654" y2="6.9494" width="0.4064" layer="94"/>
<wire x1="3.0654" y1="6.9495" x2="4.0642" y2="5.7088" width="0.4064" layer="94" curve="-77.655139" cap="flat"/>
<wire x1="4.064" y1="-5.7088" x2="4.064" y2="5.7088" width="0.4064" layer="94"/>
<wire x1="3.0654" y1="-6.9494" x2="4.064" y2="-5.7088" width="0.4064" layer="94" curve="77.657889"/>
<wire x1="-4.064" y1="-6.9312" x2="-4.064" y2="6.9312" width="0.4064" layer="94"/>
<wire x1="-2.5226" y1="-8.1718" x2="3.0654" y2="-6.9494" width="0.4064" layer="94"/>
<wire x1="-4.064" y1="-6.9312" x2="-2.5226" y2="-8.1719" width="0.4064" layer="94" curve="102.337599" cap="flat"/>
<text x="-3.81" y="-10.795" size="1.778" layer="96">&gt;VALUE</text>
<text x="-3.81" y="8.89" size="1.778" layer="95">&gt;NAME</text>
<pin name="1" x="-7.62" y="5.08" visible="pad" length="middle" direction="pas"/>
<pin name="6" x="7.62" y="2.54" visible="pad" length="middle" direction="pas" rot="R180"/>
<pin name="2" x="-7.62" y="2.54" visible="pad" length="middle" direction="pas"/>
<pin name="7" x="7.62" y="0" visible="pad" length="middle" direction="pas" rot="R180"/>
<pin name="3" x="-7.62" y="0" visible="pad" length="middle" direction="pas"/>
<pin name="8" x="7.62" y="-2.54" visible="pad" length="middle" direction="pas" rot="R180"/>
<pin name="4" x="-7.62" y="-2.54" visible="pad" length="middle" direction="pas"/>
<pin name="9" x="7.62" y="-5.08" visible="pad" length="middle" direction="pas" rot="R180"/>
<pin name="5" x="-7.62" y="-5.08" visible="pad" length="middle" direction="pas"/>
</symbol>
</symbols>
<devicesets>
<deviceset name="F09" urn="urn:adsk.eagle:component:10379/1" prefix="X" uservalue="yes" library_version="1">
<description>&lt;b&gt;SUB-D&lt;/b&gt;</description>
<gates>
<gate name="G$1" symbol="F09" x="0" y="0"/>
</gates>
<devices>
<device name="D" package="F09D">
<connects>
<connect gate="G$1" pin="1" pad="1"/>
<connect gate="G$1" pin="2" pad="2"/>
<connect gate="G$1" pin="3" pad="3"/>
<connect gate="G$1" pin="4" pad="4"/>
<connect gate="G$1" pin="5" pad="5"/>
<connect gate="G$1" pin="6" pad="6"/>
<connect gate="G$1" pin="7" pad="7"/>
<connect gate="G$1" pin="8" pad="8"/>
<connect gate="G$1" pin="9" pad="9"/>
</connects>
<package3dinstances>
<package3dinstance package3d_urn="urn:adsk.eagle:package:10273/1"/>
</package3dinstances>
<technologies>
<technology name="">
<attribute name="MF" value="" constant="no"/>
<attribute name="MPN" value="" constant="no"/>
<attribute name="OC_FARNELL" value="unknown" constant="no"/>
<attribute name="OC_NEWARK" value="unknown" constant="no"/>
</technology>
</technologies>
</device>
<device name="H" package="F09H">
<connects>
<connect gate="G$1" pin="1" pad="1"/>
<connect gate="G$1" pin="2" pad="2"/>
<connect gate="G$1" pin="3" pad="3"/>
<connect gate="G$1" pin="4" pad="4"/>
<connect gate="G$1" pin="5" pad="5"/>
<connect gate="G$1" pin="6" pad="6"/>
<connect gate="G$1" pin="7" pad="7"/>
<connect gate="G$1" pin="8" pad="8"/>
<connect gate="G$1" pin="9" pad="9"/>
</connects>
<package3dinstances>
<package3dinstance package3d_urn="urn:adsk.eagle:package:10276/1"/>
</package3dinstances>
<technologies>
<technology name="">
<attribute name="MF" value="" constant="no"/>
<attribute name="MPN" value="" constant="no"/>
<attribute name="OC_FARNELL" value="unknown" constant="no"/>
<attribute name="OC_NEWARK" value="unknown" constant="no"/>
</technology>
</technologies>
</device>
<device name="HP" package="F09HP">
<connects>
<connect gate="G$1" pin="1" pad="1"/>
<connect gate="G$1" pin="2" pad="2"/>
<connect gate="G$1" pin="3" pad="3"/>
<connect gate="G$1" pin="4" pad="4"/>
<connect gate="G$1" pin="5" pad="5"/>
<connect gate="G$1" pin="6" pad="6"/>
<connect gate="G$1" pin="7" pad="7"/>
<connect gate="G$1" pin="8" pad="8"/>
<connect gate="G$1" pin="9" pad="9"/>
</connects>
<package3dinstances>
<package3dinstance package3d_urn="urn:adsk.eagle:package:10232/1"/>
</package3dinstances>
<technologies>
<technology name="">
<attribute name="MF" value="" constant="no"/>
<attribute name="MPN" value="" constant="no"/>
<attribute name="OC_FARNELL" value="unknown" constant="no"/>
<attribute name="OC_NEWARK" value="unknown" constant="no"/>
</technology>
</technologies>
</device>
<device name="V" package="F09V">
<connects>
<connect gate="G$1" pin="1" pad="1"/>
<connect gate="G$1" pin="2" pad="2"/>
<connect gate="G$1" pin="3" pad="3"/>
<connect gate="G$1" pin="4" pad="4"/>
<connect gate="G$1" pin="5" pad="5"/>
<connect gate="G$1" pin="6" pad="6"/>
<connect gate="G$1" pin="7" pad="7"/>
<connect gate="G$1" pin="8" pad="8"/>
<connect gate="G$1" pin="9" pad="9"/>
</connects>
<package3dinstances>
<package3dinstance package3d_urn="urn:adsk.eagle:package:10277/1"/>
</package3dinstances>
<technologies>
<technology name="">
<attribute name="MF" value="" constant="no"/>
<attribute name="MPN" value="" constant="no"/>
<attribute name="OC_FARNELL" value="unknown" constant="no"/>
<attribute name="OC_NEWARK" value="unknown" constant="no"/>
</technology>
</technologies>
</device>
<device name="VP" package="F09VP">
<connects>
<connect gate="G$1" pin="1" pad="1"/>
<connect gate="G$1" pin="2" pad="2"/>
<connect gate="G$1" pin="3" pad="3"/>
<connect gate="G$1" pin="4" pad="4"/>
<connect gate="G$1" pin="5" pad="5"/>
<connect gate="G$1" pin="6" pad="6"/>
<connect gate="G$1" pin="7" pad="7"/>
<connect gate="G$1" pin="8" pad="8"/>
<connect gate="G$1" pin="9" pad="9"/>
</connects>
<package3dinstances>
<package3dinstance package3d_urn="urn:adsk.eagle:package:10230/1"/>
</package3dinstances>
<technologies>
<technology name="">
<attribute name="MF" value="" constant="no"/>
<attribute name="MPN" value="" constant="no"/>
<attribute name="OC_FARNELL" value="unknown" constant="no"/>
<attribute name="OC_NEWARK" value="unknown" constant="no"/>
</technology>
</technologies>
</device>
<device name="VB" package="F09VB">
<connects>
<connect gate="G$1" pin="1" pad="1"/>
<connect gate="G$1" pin="2" pad="2"/>
<connect gate="G$1" pin="3" pad="3"/>
<connect gate="G$1" pin="4" pad="4"/>
<connect gate="G$1" pin="5" pad="5"/>
<connect gate="G$1" pin="6" pad="6"/>
<connect gate="G$1" pin="7" pad="7"/>
<connect gate="G$1" pin="8" pad="8"/>
<connect gate="G$1" pin="9" pad="9"/>
</connects>
<package3dinstances>
<package3dinstance package3d_urn="urn:adsk.eagle:package:10282/1"/>
</package3dinstances>
<technologies>
<technology name="">
<attribute name="MF" value="" constant="no"/>
<attribute name="MPN" value="" constant="no"/>
<attribute name="OC_FARNELL" value="unknown" constant="no"/>
<attribute name="OC_NEWARK" value="unknown" constant="no"/>
</technology>
</technologies>
</device>
</devices>
</deviceset>
</devicesets>
</library>
</libraries>
<attributes>
</attributes>
<variantdefs>
</variantdefs>
<classes>
<class number="0" name="default" width="0" drill="0">
</class>
</classes>
<parts>
<part name="SV1" library="con-lstb" library_urn="urn:adsk.eagle:library:162" deviceset="MA04-1" device="" package3d_urn="urn:adsk.eagle:package:8337/1"/>
<part name="SV2" library="con-lstb" library_urn="urn:adsk.eagle:library:162" deviceset="MA09-1" device="" package3d_urn="urn:adsk.eagle:package:8350/1"/>
<part name="SV3" library="con-lstb" library_urn="urn:adsk.eagle:library:162" deviceset="MA09-1" device="" package3d_urn="urn:adsk.eagle:package:8350/1"/>
<part name="SV4" library="con-lstb" library_urn="urn:adsk.eagle:library:162" deviceset="MA04-1" device="" package3d_urn="urn:adsk.eagle:package:8337/1"/>
<part name="X1" library="con-subd" library_urn="urn:adsk.eagle:library:189" deviceset="F09" device="H" package3d_urn="urn:adsk.eagle:package:10276/1"/>
</parts>
<sheets>
<sheet>
<plain>
</plain>
<instances>
<instance part="SV1" gate="1" x="-38.1" y="40.64"/>
<instance part="SV2" gate="1" x="-17.78" y="39.37"/>
<instance part="SV3" gate="1" x="0" y="39.37"/>
<instance part="SV4" gate="1" x="-38.1" y="5.08"/>
<instance part="X1" gate="G$1" x="-69.85" y="39.37"/>
</instances>
<busses>
</busses>
<nets>
</nets>
</sheet>
</sheets>
</schematic>
</drawing>
<compatibility>
<note version="8.2" severity="warning">
Since Version 8.2, EAGLE supports online libraries. The ids
of those online libraries will not be understood (or retained)
with this version.
</note>
<note version="8.3" severity="warning">
Since Version 8.3, EAGLE supports URNs for individual library
assets (packages, symbols, and devices). The URNs of those assets
will not be understood (or retained) with this version.
</note>
<note version="8.3" severity="warning">
Since Version 8.3, EAGLE supports the association of 3D packages
with devices in libraries, schematics, and board files. Those 3D
packages will not be understood (or retained) with this version.
</note>
</compatibility>
</eagle>
